/Users/juliohero/eclipse-workspace/s4n/su_corrientazo_a_domicilio/src/main/java/corrientazo/validator/DroneRuleValidation.java
/Users/juliohero/eclipse-workspace/s4n/su_corrientazo_a_domicilio/src/main/java/corrientazo/vo/Neighborhood.java
/Users/juliohero/eclipse-workspace/s4n/su_corrientazo_a_domicilio/src/main/java/corrientazo/execution/CorrientazoMain.java
/Users/juliohero/eclipse-workspace/s4n/su_corrientazo_a_domicilio/src/main/java/corrientazo/vo/DeliverHistoric.java
/Users/juliohero/eclipse-workspace/s4n/su_corrientazo_a_domicilio/src/main/java/corrientazo/enumeration/CorrientazoProperties.java
/Users/juliohero/eclipse-workspace/s4n/su_corrientazo_a_domicilio/src/main/java/corrientazo/util/PropertiesLoader.java
/Users/juliohero/eclipse-workspace/s4n/su_corrientazo_a_domicilio/src/main/java/corrientazo/vo/Drone.java
/Users/juliohero/eclipse-workspace/s4n/su_corrientazo_a_domicilio/src/main/java/corrientazo/enumeration/DroneOrientation.java
/Users/juliohero/eclipse-workspace/s4n/su_corrientazo_a_domicilio/src/main/java/corrientazo/exception/NeighborhoodException.java
/Users/juliohero/eclipse-workspace/s4n/su_corrientazo_a_domicilio/src/main/java/corrientazo/enumeration/DroneMove.java
/Users/juliohero/eclipse-workspace/s4n/su_corrientazo_a_domicilio/src/main/java/corrientazo/vo/DronePosition.java
/Users/juliohero/eclipse-workspace/s4n/su_corrientazo_a_domicilio/src/main/java/corrientazo/service/CorrientazoService.java
/Users/juliohero/eclipse-workspace/s4n/su_corrientazo_a_domicilio/src/main/java/corrientazo/util/FileUtil.java
